{
  "extends": "../../tslint.json",
  "rules": {
    "directive-selector": [true, "attribute", "testingLibrary", "camelCase"],
    "component-selector": [true, "element", "testing-library", "kebab-case"]
  }
}
